{
	"info": {
		"_postman_id": "d1ff1b06-b424-4e96-ad5a-7e93d096fec9",
		"name": "News App",
		"schema": "https://schema.getpostman.com/json/collection/v2.1.0/collection.json"
	},
	"item": [
		{
			"name": "getAllNews",
			"request": {
				"method": "GET",
				"header": [],
				"url": {
					"raw": "http://10.20.0.8:8083/api/v1/news/getAllNews",
					"protocol": "http",
					"host": [
						"10",
						"20",
						"0",
						"8"
					],
					"port": "8083",
					"path": [
						"api",
						"v1",
						"news",
						"getAllNews"
					]
				}
			},
			"response": []
		},
		{
			"name": "getAllTypeNew",
			"request": {
				"method": "GET",
				"header": [],
				"url": {
					"raw": "http://10.20.0.8:8083/api/v1/typeNew/getAllTypeNew",
					"protocol": "http",
					"host": [
						"10",
						"20",
						"0",
						"8"
					],
					"port": "8083",
					"path": [
						"api",
						"v1",
						"typeNew",
						"getAllTypeNew"
					]
				}
			},
			"response": []
		},
		{
			"name": "insert new",
			"request": {
				"method": "POST",
				"header": [],
				"body": {
					"mode": "raw",
					"raw": "{\n    \"title\" : \"tin moi them1\",\n    \"description\" : \"mo ta cua tin moi\",\n    \"type\" : 2,\n    \"created_at\" : \"2022-05-20\"\n}",
					"options": {
						"raw": {
							"language": "json"
						}
					}
				},
				"url": {
					"raw": "http://10.20.0.8:8083/api/v1/news/insertNew",
					"protocol": "http",
					"host": [
						"10",
						"20",
						"0",
						"8"
					],
					"port": "8083",
					"path": [
						"api",
						"v1",
						"news",
						"insertNew"
					]
				}
			},
			"response": []
		},
		{
			"name": "insertTypeNew",
			"request": {
				"method": "POST",
				"header": [],
				"body": {
					"mode": "raw",
					"raw": "{\n    \"name\" : \"type new\",\n    \"description\" : \"type moi them\"\n}",
					"options": {
						"raw": {
							"language": "json"
						}
					}
				},
				"url": {
					"raw": "http://10.20.0.8:8083/api/v1/typeNew/insertTypeNew",
					"protocol": "http",
					"host": [
						"10",
						"20",
						"0",
						"8"
					],
					"port": "8083",
					"path": [
						"api",
						"v1",
						"typeNew",
						"insertTypeNew"
					]
				}
			},
			"response": []
		},
		{
			"name": "updateTypeNew",
			"request": {
				"method": "PUT",
				"header": [],
				"body": {
					"mode": "raw",
					"raw": "{\n    \"name\" : \"type moi update\",\n    \"description\" : \"vua update xong\"\n}",
					"options": {
						"raw": {
							"language": "json"
						}
					}
				},
				"url": {
					"raw": "http://10.20.0.8:8083/api/v1/typeNew/updateTypeNew/12",
					"protocol": "http",
					"host": [
						"10",
						"20",
						"0",
						"8"
					],
					"port": "8083",
					"path": [
						"api",
						"v1",
						"typeNew",
						"updateTypeNew",
						"12"
					]
				}
			},
			"response": []
		},
		{
			"name": "update new",
			"request": {
				"method": "PUT",
				"header": [],
				"body": {
					"mode": "raw",
					"raw": "{\n    \"title\" : \"tin moi update\",\n    \"description\" : \"mo ta cua tin update\",\n    \"type\" : 2,\n    \"created_at\" : \"2022-05-20\"\n}",
					"options": {
						"raw": {
							"language": "json"
						}
					}
				},
				"url": {
					"raw": "http://10.20.0.8:8083/api/v1/news/updateNew/11",
					"protocol": "http",
					"host": [
						"10",
						"20",
						"0",
						"8"
					],
					"port": "8083",
					"path": [
						"api",
						"v1",
						"news",
						"updateNew",
						"11"
					]
				}
			},
			"response": []
		},
		{
			"name": "delete new",
			"request": {
				"method": "DELETE",
				"header": [],
				"url": {
					"raw": "http://10.20.0.8:8083/api/v1/news/delete/12",
					"protocol": "http",
					"host": [
						"10",
						"20",
						"0",
						"8"
					],
					"port": "8083",
					"path": [
						"api",
						"v1",
						"news",
						"delete",
						"12"
					]
				}
			},
			"response": []
		},
		{
			"name": "delete type new",
			"request": {
				"method": "DELETE",
				"header": [],
				"url": {
					"raw": "http://10.20.0.8:8083/api/v1/typeNew/delete/12",
					"protocol": "http",
					"host": [
						"10",
						"20",
						"0",
						"8"
					],
					"port": "8083",
					"path": [
						"api",
						"v1",
						"typeNew",
						"delete",
						"12"
					]
				}
			},
			"response": []
		},
		{
			"name": "get news by type",
			"request": {
				"method": "GET",
				"header": [],
				"url": {
					"raw": "http://10.20.0.8:8083/api/v1/news/typeNew/3",
					"protocol": "http",
					"host": [
						"10",
						"20",
						"0",
						"8"
					],
					"port": "8083",
					"path": [
						"api",
						"v1",
						"news",
						"typeNew",
						"3"
					]
				}
			},
			"response": []
		},
		{
			"name": "login",
			"request": {
				"method": "POST",
				"header": [],
				"body": {
					"mode": "raw",
					"raw": "{\n    \"name\" : \"hoangnv\",\n    \"password\" : \"hoang123@\"\n}",
					"options": {
						"raw": {
							"language": "json"
						}
					}
				},
				"url": {
					"raw": "http://10.20.0.8:8083/api/v1/user/login",
					"protocol": "http",
					"host": [
						"10",
						"20",
						"0",
						"8"
					],
					"port": "8083",
					"path": [
						"api",
						"v1",
						"user",
						"login"
					]
				}
			},
			"response": []
		}
	]
}